module kamis_gogo_nasa

go 1.18

require (
	github.com/Azure/go-ansiterm v0.0.0-20210617225240-d185dfc1b5a1 // indirect
	github.com/Microsoft/go-winio v0.5.2 // indirect
	github.com/Nvveen/Gotty v0.0.0-20120604004816-cd527374f1e5 // indirect
	github.com/araddon/dateparse v0.0.0-20210429162001-6b43995a97de // indirect
	github.com/cenkalti/backoff v2.2.1+incompatible // indirect
	github.com/cenkalti/backoff/v4 v4.1.3 // indirect
	github.com/containerd/continuity v0.3.0 // indirect
	github.com/davecgh/go-spew v1.1.1 // indirect
	github.com/docker/cli v20.10.14+incompatible // indirect
	github.com/docker/docker v20.10.7+incompatible // indirect
	github.com/docker/go-connections v0.4.0 // indirect
	github.com/docker/go-units v0.4.0 // indirect
	github.com/gogo/protobuf v1.3.2 // indirect
	github.com/google/shlex v0.0.0-20191202100458-e7afc7fbc510 // indirect
	github.com/imdario/mergo v0.3.12 // indirect
	github.com/joho/godotenv v1.4.0 // indirect
	github.com/mitchellh/mapstructure v1.4.1 // indirect
	github.com/moby/term v0.0.0-20201216013528-df9cb8a40635 // indirect
	github.com/opencontainers/go-digest v1.0.0 // indirect
	github.com/opencontainers/image-spec v1.0.2 // indirect
	github.com/opencontainers/runc v1.1.3 // indirect
	github.com/ory/dockertest v3.3.5+incompatible // indirect
	github.com/ory/dockertest/v3 v3.9.1 // indirect
	github.com/pkg/errors v0.9.1 // indirect
	github.com/pmezard/go-difflib v1.0.0 // indirect
	github.com/sirupsen/logrus v1.9.0 // indirect
	github.com/stretchr/objx v0.1.0 // indirect
	github.com/stretchr/testify v1.7.1 // indirect
	github.com/xeipuuv/gojsonpointer v0.0.0-20180127040702-4e3ac2762d5f // indirect
	github.com/xeipuuv/gojsonreference v0.0.0-20180127040603-bd5ef7bd5415 // indirect
	github.com/xeipuuv/gojsonschema v1.2.0 // indirect
	golang.org/x/net v0.0.0-20220812174116-3211cb980234 // indirect
	golang.org/x/sys v0.0.0-20220811171246-fbc7d0a398ab // indirect
	google.golang.org/genproto v0.0.0-20220812140447-cec7f5303424 // indirect
	google.golang.org/protobuf v1.28.1 // indirect
	gopkg.in/yaml.v2 v2.3.0 // indirect
	gopkg.in/yaml.v3 v3.0.0-20200313102051-9f266ea9e77c // indirect
)
